id;adresse;code_postal;commune
1;RUE ACHILLE PERETTI ST PAUL BT A;20090;Ajaccio
2;RUE ACHILLE PERETTI ST PAUL BT B;20090;Ajaccio
3;RUE ACHILLE PERETTI ST PAUL BT C;20090;Ajaccio
4;RUE ACHILLE PERETTI ST PAUL BT D;20090;Ajaccio
5;RUE ACHILLE PERETTI ST PAUL BT E;20090;Ajaccio
6;RUE ACHILLE PERETTI ST PAUL BT F;20090;Ajaccio
7;RUE ACHILLE PERETTI ST PAUL BT G;20090;Ajaccio
8;RUE ACHILLE PERETTI ST PAUL BT H;20090;Ajaccio
9;RUE ACHILLE PERETTI ST PAUL BT I;20090;Ajaccio
10;1 CHEMIN ALZO DI LEVA;20090;Ajaccio
